m, 0x27361e0, 160
m, 0x269ce50, 2584
m, 0x3195580, 16104
m, 0x2f71980, 384
m, 0x3076df0, 488
m, 0x2b3d2c0, 504
m, 0x278ae50, 504
m, 0x332fec0, 3736
m, 0x2f790f0, 984
m, 0x2f13120, 984
m, 0x2fdced0, 19224
m, 0x3138480, 19224
m, 0x31efad0, 76824
m, 0x322a280, 21408
f, 0x31efad0
f, 0x3138480
f, 0x2fdced0
f, 0x2f13120
f, 0x2f790f0
f, 0x332fec0
f, 0x278ae50
f, 0x2b3d2c0
f, 0x3076df0
f, 0x3195580
f, 0x322a280
f, 0x269ce50
f, 0x2f71980
f, 0x27361e0
