m, 0x141b140, 1024
m, 0x1659ef0, 405504
m, 0x7fef58d40010, 405504
m, 0x7fef58cdc010, 405504
m, 0x16201f0, 101376
m, 0x13f7680, 101376
m, 0x1705f90, 101376
m, 0x1639390, 101376
m, 0x15590e0, 101376
m, 0x16bcf00, 101376
f, 0x7fef58d40010
f, 0x1659ef0
f, 0x7fef58cdc010
f, 0x13f7680
f, 0x16201f0
f, 0x1705f90
f, 0x15590e0
f, 0x1639390
f, 0x16bcf00
